<svg width="155" height="155" viewBox="0 0 155 155" fill="none" xmlns="http://www.w3.org/2000/svg">
<path d="M77.5 155C34.7648 155 0 120.235 0 77.5C0 34.7648 34.7648 0 77.5 0C120.235 0 155 34.7648 155 77.5C155 120.235 120.235 155 77.5 155ZM77.5 9.6875C40.1064 9.6875 9.6875 40.1064 9.6875 77.5C9.6875 114.894 40.1064 145.312 77.5 145.312C114.894 145.312 145.312 114.894 145.312 77.5C145.312 40.1064 114.894 9.6875 77.5 9.6875Z" fill="white"/>
<path d="M111.406 82.3438H43.5938C40.92 82.3438 38.75 80.1738 38.75 77.5C38.75 74.8262 40.92 72.6562 43.5938 72.6562H111.406C114.08 72.6562 116.25 74.8262 116.25 77.5C116.25 80.1738 114.08 82.3438 111.406 82.3438Z" fill="white"/>
<path d="M77.5 116.25C74.8262 116.25 72.6562 114.08 72.6562 111.406V43.5938C72.6562 40.92 74.8262 38.75 77.5 38.75C80.1738 38.75 82.3438 40.92 82.3438 43.5938V111.406C82.3438 114.08 80.1738 116.25 77.5 116.25Z" fill="white"/>
</svg>
